<?xml version="1.0" encoding="UTF-8" standalone="no"?>
<svg width="99px" height="99px" viewBox="0 0 99 99" version="1.1" xmlns="http://www.w3.org/2000/svg" xmlns:xlink="http://www.w3.org/1999/xlink">
    <!-- Generator: Sketch 41.2 (35397) - http://www.bohemiancoding.com/sketch -->
    <title>youtube</title>
    <desc>Created with Sketch.</desc>
    <defs></defs>
    <g id="Page-1" stroke="none" stroke-width="1" fill="none" fill-rule="evenodd">
        <g id="youtube" transform="translate(17.000000, 10.000000)" fill="#818181">
            <path d="M41.380625,54.0920488 L41.380625,63.2669034 C41.380625,65.209319 40.8116195,66.1805268 39.6736085,66.1805268 C39.0027594,66.1805268 38.3459119,65.8614244 37.703066,65.2232195 L37.703066,52.1357327 C38.3459119,51.4975278 39.0027594,51.1784254 39.6736085,51.1784254 C40.8116195,51.1784254 41.380625,52.1496332 41.380625,54.0920488 L41.380625,54.0920488 Z M56.1834552,54.1365659 L56.1834552,56.137399 L52.2423703,56.137399 L52.2423703,54.1365659 C52.2423703,52.1663493 52.8992178,51.181241 54.2129127,51.181241 C55.5266077,51.181241 56.1834552,52.1663493 56.1834552,54.1365659 L56.1834552,54.1365659 Z M13.874434,44.6583102 L18.5611026,44.6583102 L18.5611026,40.5703493 L4.89630896,40.5703493 L4.89630896,44.6583102 L9.49605542,44.6583102 L9.49605542,69.4001385 L13.8771934,69.4001385 L13.8771934,44.6583102 L13.874434,44.6583102 Z M26.4881132,69.4002146 L30.3871167,69.4002146 L30.3871167,47.9197756 L26.4881132,47.9197756 L26.4881132,64.3549463 C25.6116863,65.5719493 24.7791804,66.1804507 23.9905955,66.1804507 C23.4654855,66.1804507 23.1590094,65.8761873 23.0711675,65.2676605 C23.0412736,65.1804527 23.0263267,64.6730595 23.0263267,63.745481 L23.0263267,47.91696 L19.1273231,47.91696 L19.1273231,64.917079 C19.1273231,66.3381756 19.2441136,67.3965659 19.4776946,68.0922498 C19.8271207,69.1645659 20.6736281,69.7007239 22.017217,69.7007239 C23.4187539,69.7007239 24.9081073,68.8167239 26.4852771,67.0487239 L26.4852771,69.397399 L26.4881132,69.4002146 Z M45.2768691,62.9635785 L45.2768691,54.3981132 C45.2768691,52.2813327 45.1451317,50.8463356 44.8816568,50.093122 C44.384601,48.4698088 43.348408,47.6581522 41.7730778,47.6581522 C40.3136439,47.6581522 38.9560535,48.4410439 37.7003066,50.0068273 L37.7003066,40.5703493 L33.8013031,40.5703493 L33.8013031,69.3973229 L37.7003066,69.3973229 L37.7003066,67.3101951 C39.0140016,68.9038302 40.371592,69.7006478 41.7730778,69.7006478 C43.3502476,69.7006478 44.3864406,68.9038302 44.8816568,67.3101951 C45.1451317,66.5273034 45.2768691,65.0774673 45.2768691,62.9606868 L45.2768691,62.9635785 Z M60.0824587,62.529442 L60.0824587,61.9645698 L56.096533,61.9645698 C56.096533,63.4431454 56.067559,64.3271454 56.0096108,64.6165698 C55.8059237,65.6592078 55.2219458,66.1805268 54.2576769,66.1805268 C52.9140881,66.1805268 52.2422936,65.1805795 52.2422936,63.1806849 L52.2422936,59.3988644 L60.0823821,59.3988644 L60.0823821,54.92136 C60.0823821,52.632041 59.6880896,50.9503102 58.8995047,49.8761678 C57.7614937,48.3975922 56.2142178,47.6583044 54.2576769,47.6583044 C52.2731329,47.6583044 50.71091,48.3975922 49.5710083,49.8761678 C48.7525295,50.9484839 48.3432901,52.6302146 48.3432901,54.92136 L48.3432901,62.4432995 C48.3432901,64.7326185 48.7665566,66.4143493 49.6130896,67.4884917 C50.7511006,68.9670673 52.3273506,69.7063551 54.3418396,69.7063551 C56.4441195,69.7063551 58.0203695,68.9383024 59.0705896,67.4021971 C59.5956997,66.6193054 59.9021757,65.8364137 59.9900177,65.053522 C60.0479658,64.7919493 60.0769399,63.9515532 60.0769399,62.5323337 L60.0824587,62.529442 Z M33.4536144,22.8301054 L33.4536144,13.6997678 C33.4536144,11.6998732 32.825741,10.6999259 31.5699941,10.6999259 C30.3142472,10.6999259 29.6863738,11.6998732 29.6863738,13.6997678 L29.6863738,22.8301054 C29.6863738,24.859678 30.3142472,25.8744644 31.5699941,25.8744644 C32.825741,25.8744644 33.4536144,24.859678 33.4536144,22.8301054 L33.4536144,22.8301054 Z M64.942895,55.4862322 C64.942895,62.2688585 64.5635495,67.3419024 63.8048585,70.7053639 C63.3955936,72.4158341 62.5490861,73.8508312 61.2653361,75.0103551 C59.9815861,76.169879 58.4922327,76.8368234 56.7972759,77.0111883 C51.4248113,77.6197151 43.3221678,77.9239785 32.4893455,77.9239785 C21.6565232,77.9239785 13.5538797,77.6197151 8.18141509,77.0111883 C6.48840016,76.8368234 4.99158608,76.169879 3.69097288,75.0103551 C2.39035967,73.8508312 1.55131289,72.4158341 1.17383255,70.7053639 C0.415141509,67.4587883 0.0357959906,62.3857444 0.0357959906,55.4862322 C0.0357959906,48.7036059 0.415141509,43.630562 1.17383255,40.2671005 C1.58309748,38.5566302 2.42960495,37.1216332 3.71335495,35.9621093 C4.99710495,34.8025854 6.50045991,34.1217151 8.22341981,33.9194985 C13.5659906,33.3388234 21.6536871,33.0484859 32.4865094,33.0484859 C43.3193318,33.0484859 51.4219752,33.3388234 56.7944399,33.9194985 C58.4874548,34.1217151 59.9842689,34.8025854 61.2848821,35.9621093 C62.5854953,37.1216332 63.4245421,38.5566302 63.8020224,40.2671005 C64.5607134,43.5136761 64.940059,48.58672 64.940059,55.4862322 L64.942895,55.4862322 Z M21.232388,0.00281560976 L25.7004481,0.00281560976 L20.3998821,17.3507766 L20.3998821,29.1331141 L16.0187441,29.1331141 L16.0187441,17.3507766 C15.6094792,15.2061444 14.7190507,12.1330205 13.3474587,8.13140488 C12.2673447,5.14640195 11.3180483,2.43595902 10.4995696,7.6097561e-05 L15.1413974,7.6097561e-05 L18.2499764,11.4345717 L21.232388,0.00281560976 Z M37.4395401,14.4816702 L37.4395401,22.0898283 C37.4395401,24.4385034 37.0303007,26.148999 36.2118219,27.2213151 C35.1317079,28.6998907 33.584432,29.4391785 31.5699941,29.4391785 C29.6134532,29.4391785 28.0802044,28.6998907 26.9702476,27.2213151 C26.1517689,26.119321 25.7425295,24.4088254 25.7425295,22.0898283 L25.7425295,14.4816702 C25.7425295,12.1626732 26.1517689,10.4670166 26.9702476,9.39470049 C28.0802555,7.91612488 29.6135043,7.17683707 31.5699941,7.17683707 C33.584432,7.17683707 35.1317079,7.91612488 36.2118219,9.39470049 C37.0303007,10.4670166 37.4395401,12.1626732 37.4395401,14.4816702 L37.4395401,14.4816702 Z M52.1106073,7.43838439 L52.1106073,29.1358537 L48.1246816,29.1358537 L48.1246816,26.745401 C46.5774057,28.543079 45.0740507,29.441918 43.6146167,29.441918 C42.2710279,29.441918 41.4095735,28.90576 41.0302535,27.8334439 C40.7966726,27.13776 40.6798821,26.0506049 40.6798821,24.5719785 L40.6798821,7.4410478 L44.6658078,7.4410478 L44.6658078,23.397641 C44.6658078,24.3549483 44.6807547,24.8623415 44.7106486,24.9198205 C44.7984906,25.5580254 45.1049666,25.8771278 45.6300767,25.8771278 C46.4186616,25.8771278 47.2511675,25.2537873 48.1275943,24.0071063 L48.1275943,7.4411239 L52.11352,7.4411239 L52.1106073,7.43838439 Z" id="Shape"></path>
        </g>
    </g>
</svg>